<?xml version="1.0" encoding="UTF-8" standalone="no"?>
<!-- Created with Inkscape (http://www.inkscape.org/) -->

<svg
   xmlns:dc="http://purl.org/dc/elements/1.1/"
   xmlns:cc="http://creativecommons.org/ns#"
   xmlns:rdf="http://www.w3.org/1999/02/22-rdf-syntax-ns#"
   xmlns:svg="http://www.w3.org/2000/svg"
   xmlns="http://www.w3.org/2000/svg"
   xmlns:sodipodi="http://sodipodi.sourceforge.net/DTD/sodipodi-0.dtd"
   xmlns:inkscape="http://www.inkscape.org/namespaces/inkscape"
   width="210mm"
   height="297mm"
   viewBox="0 0 744.09448819 1052.3622047"
   id="svg2"
   version="1.1"
   inkscape:version="0.91 r13725"
   sodipodi:docname="FDCL.svg">
  <defs
     id="defs4" />
  <sodipodi:namedview
     id="base"
     pagecolor="#ffffff"
     bordercolor="#666666"
     borderopacity="1.0"
     inkscape:pageopacity="0.0"
     inkscape:pageshadow="2"
     inkscape:zoom="3.6957672"
     inkscape:cx="466.18588"
     inkscape:cy="537.71403"
     inkscape:document-units="px"
     inkscape:current-layer="layer1"
     showgrid="false"
     showguides="true"
     inkscape:guide-bbox="true"
     inkscape:window-width="1920"
     inkscape:window-height="1018"
     inkscape:window-x="-8"
     inkscape:window-y="-8"
     inkscape:window-maximized="1" />
  <metadata
     id="metadata7">
    <rdf:RDF>
      <cc:Work
         rdf:about="">
        <dc:format>image/svg+xml</dc:format>
        <dc:type
           rdf:resource="http://purl.org/dc/dcmitype/StillImage" />
        <dc:title></dc:title>
      </cc:Work>
    </rdf:RDF>
  </metadata>
  <g
     inkscape:label="Calque 1"
     inkscape:groupmode="layer"
     id="layer1">
    <path
       style="fill:#000000"
       d="m 307.98855,528.83204 0,-72 51,0 51,0 0,72 0,72 -51,0 -51,0 0,-72 z m 50,68 c 0,-2.66667 -0.33333,-3 -3,-3 -2.66667,0 -3,0.33333 -3,3 0,2.66667 0.33333,3 3,3 2.66667,0 3,-0.33333 3,-3 z m 8,0 c 0,-2.66667 -0.33333,-3 -3,-3 -2.66667,0 -3,0.33333 -3,3 0,2.66667 0.33333,3 3,3 2.66667,0 3,-0.33333 3,-3 z m -16,-5.5 c 0,-5.5617 -0.34261,-7.5 -1.32569,-7.5 -0.72912,0 -2.38257,-1.125 -3.67431,-2.5 -1.29175,-1.375 -2.80373,-2.5 -3.35996,-2.5 -0.55623,0 -3.06529,1.71643 -5.57568,3.81429 -6.26803,5.23799 -6.42822,5.30343 -9.9643,4.07075 -2.88719,-1.00648 -3.43866,-0.81186 -7.11775,2.51197 -2.33629,2.1107 -5.02233,3.60299 -6.48519,3.60299 -2.10791,0 -2.49712,0.46759 -2.49712,3 l 0,3 20,0 20,0 0,-7.5 z m 58,1.09039 0,-6.40962 -7.25,-3.89941 c -3.9875,-2.14467 -9.21465,-4.7522 -11.61588,-5.79451 l -4.36588,-1.89511 -8.38412,4.29313 -8.38412,4.29312 0,7.91101 0,7.911 20,0 20,0 0,-6.40961 z m -50,-3.59039 c 0,-2.66667 -0.33333,-3 -3,-3 -2.66667,0 -3,0.33333 -3,3 0,2.66667 0.33333,3 3,3 2.66667,0 3,-0.33333 3,-3 z m 8,0 c 0,-2.66667 -0.33333,-3 -3,-3 -2.66667,0 -3,0.33333 -3,3 0,2.66667 0.33333,3 3,3 2.66667,0 3,-0.33333 3,-3 z m -40,-49 c 0,-4.78457 0.11849,-5.00059 2.75,-5.01366 3.75192,-0.0186 7.25,-1.0333 7.25,-2.10297 0,-0.48585 -1.2375,-0.88952 -2.75,-0.89703 -5.4131,-0.0269 -7.25,-1.03932 -7.25,-3.99598 0,-3.17493 1.44716,-3.99036 7.08179,-3.99036 3.97243,0 5.22617,-1.28411 2.33642,-2.39301 -0.86998,-0.33385 -3.53784,-0.60699 -5.92857,-0.60699 -6.74388,0 -7.48964,1.35133 -7.48964,13.57143 0,9.7619 0.12785,10.42857 2,10.42857 1.73333,0 2,-0.66667 2,-5 z m 29,3.70923 c 5.26072,-2.65413 5.75374,-17.66703 0.6965,-21.20925 -1.32754,-0.92985 -4.43251,-1.5007 -8.16901,-1.50187 l -6.02749,-0.002 0.3088,12.00189 0.3088,12.00189 5.1912,-0.0147 c 2.85516,-0.008 6.3162,-0.58232 7.6912,-1.27603 z m -9.79044,-10.95923 0.29044,-8.25 3.12457,-0.304 c 4.67799,-0.45515 6.37543,1.85466 6.37543,8.67543 0,6.74219 -1.06435,8.12857 -6.24044,8.12857 l -3.84045,0 0.29045,-8.25 z m 31.54044,11.61971 c 1.2375,-0.33163 2.25,-1.22549 2.25,-1.98634 0,-1.0051 -1.46002,-1.38337 -5.33949,-1.38337 -4.75133,0 -5.46731,-0.28056 -6.5,-2.54705 -1.63595,-3.59053 -1.44104,-9.60742 0.39619,-12.23044 1.25167,-1.787 2.52536,-2.22251 6.5,-2.22251 4.83914,0 6.50576,-1.18645 3.36151,-2.39301 -2.86826,-1.10066 -10.00146,-0.63221 -11.93823,0.78399 -1.47072,1.07541 -1.9872,2.94707 -2.27658,8.25 -0.20586,3.77246 0.10761,8.1086 0.69661,9.63586 1.53898,3.99057 6.88174,5.6923 12.84999,4.09287 z m 20.25,-1.31745 c 0,-1.64461 -0.81708,-1.99478 -5.25,-2.25 l -5.25,-0.30226 -0.28621,-9.75 c -0.22787,-7.76245 -0.58461,-9.75 -1.75,-9.75 -1.1947,0 -1.46379,1.98541 -1.46379,10.8 0,7.06667 0.41482,11.21482 1.2,12 0.66,0.66 3.81,1.2 7,1.2 5.08146,0 5.8,-0.2413 5.8,-1.94774 z m -36.16251,-33.93066 c 2.1046,-1.33401 1.01914,-5.57083 -1.51983,-5.93228 -3.05763,-0.4353 -4.9007,3.08478 -2.74425,5.24123 1.78499,1.78499 2.38485,1.88221 4.26408,0.69105 z m -9.41928,-2.72859 c 2.07319,-0.79555 2.04059,-5.00297 -0.045,-5.80327 -3.21136,-1.23232 -5.63552,2.74799 -3.17325,5.21026 1.40234,1.40234 1.20426,1.36584 3.21821,0.59301 z m 18.38179,-0.59301 c 1.75137,-1.75137 1.4701,-3.58508 -0.73055,-4.76283 -2.74494,-1.46905 -5.50133,1.28734 -4.03228,4.03228 1.17775,2.20065 3.01146,2.48192 4.76283,0.73055 z m -22.97986,-8.56469 c 0.41015,-2.87531 -2.41729,-4.06674 -4.56178,-1.92224 -1.3278,1.3278 -1.37093,1.84637 -0.26442,3.17963 1.79955,2.16833 4.43549,1.48158 4.8262,-1.25739 z m 28.67986,-0.23531 c 0,-2.85063 -3.15628,-4.05931 -4.11001,-1.57391 -0.9098,2.37089 0.3775,4.76534 2.35699,4.38412 1.10702,-0.21319 1.75302,-1.24877 1.75302,-2.81021 z m -9.69713,-1.37728 c -0.19255,-1.34952 -1.02638,-2.12272 -2.28918,-2.12272 -2.28807,0 -3.36288,3.35714 -1.45277,4.53765 2.00124,1.23684 4.07228,-0.0997 3.74195,-2.41493 z m -8.98332,0.1375 c -0.35663,-2.49969 -3.65036,-3.652 -4.8572,-1.6993 -1.25496,2.03056 0.0601,3.93908 2.71419,3.93908 1.97889,0 2.3998,-0.43992 2.14301,-2.23978 z m -11.81955,-7.26022 c 0,-1.808 -0.53727,-2.5 -1.94098,-2.5 -2.35618,0 -3.2744,1.27517 -2.45528,3.40976 1.02432,2.66933 4.39626,1.97155 4.39626,-0.90976 z m 32.26936,1.25 c 0.70928,-2.03337 -0.35152,-3.75 -2.31733,-3.75 -2.20467,0 -3.3351,1.55934 -2.57203,3.54789 0.6821,1.77751 4.28783,1.92656 4.88936,0.20211 z m -24.26936,-1.75 c 0,-1.33333 -0.66667,-2 -2,-2 -1.92719,0 -2.7099,1.95677 -1.33333,3.33333 1.37656,1.37657 3.33333,0.59386 3.33333,-1.33333 z m 7.81184,-0.26148 c 0.2311,-1.2 -0.30742,-1.73852 -1.73852,-1.73852 -1.4311,0 -2.07332,0.64222 -2.07332,2.07332 0,2.56265 3.30983,2.27193 3.81184,-0.3348 z m 8,0 c 0.2311,-1.2 -0.30742,-1.73852 -1.73852,-1.73852 -1.4311,0 -2.07332,0.64222 -2.07332,2.07332 0,2.56265 3.30983,2.27193 3.81184,-0.3348 z m -19.81184,-7.37689 c 0,-1.88313 -2.84399,-2.91764 -4.22484,-1.53679 -0.7872,0.7872 -0.74818,1.50275 0.14033,2.57334 1.42853,1.72126 4.08451,1.04724 4.08451,-1.03655 z m 23.72185,1.51652 c 1.37451,-1.37451 0.55473,-3.87815 -1.26982,-3.87815 -1.75682,0 -2.76864,1.73253 -2.07203,3.54789 0.66764,1.73983 1.81855,1.85356 3.34185,0.33026 z m -15.72185,-2.43717 c 0,-0.79254 -0.675,-1.44098 -1.5,-1.44098 -1.50623,0 -2.05568,2.11099 -0.86052,3.30615 0.93324,0.93324 2.36052,-0.19452 2.36052,-1.86517 z m 7,0 c 0,-0.79254 -0.675,-1.44098 -1.5,-1.44098 -1.50623,0 -2.05568,2.11099 -0.86052,3.30615 0.93324,0.93324 2.36052,-0.19452 2.36052,-1.86517 z m -9.5,-6.51062 c 0,-0.77163 -0.7875,-1.55463 -1.75,-1.73999 -1.72374,-0.33196 -2.43634,1.78995 -1.0625,3.1638 1.04821,1.0482 2.8125,0.15504 2.8125,-1.42381 z m 12,0 c 0,-0.77163 -0.7875,-1.55463 -1.75,-1.73999 -1.72374,-0.33196 -2.43634,1.78995 -1.0625,3.1638 1.04821,1.0482 2.8125,0.15504 2.8125,-1.42381 z m -5.94615,-6.01749 c 1.03052,-1.66742 -1.28721,-3.57951 -2.66672,-2.2 -1.15392,1.15392 -0.43172,3.28713 1.11287,3.28713 0.48508,0 1.18431,-0.48921 1.55385,-1.08713 z"
       id="path4147"
       inkscape:connector-curvature="0" />
    <rect
       style="fill:#000000;fill-opacity:1;stroke:none;stroke-width:2;stroke-miterlimit:4;stroke-dasharray:none;stroke-opacity:1"
       id="rect4149"
       width="102.16959"
       height="143.49663"
       x="453.44931"
       y="462.68677" />
    <rect
       y="462.68677"
       x="453.44931"
       height="143.49663"
       width="102.16959"
       id="rect4151"
       style="fill:#ffffff;fill-opacity:1;stroke:#000000;stroke-width:2;stroke-miterlimit:4;stroke-dasharray:none;stroke-opacity:1" />
  </g>
  <g
     inkscape:groupmode="layer"
     id="layer2"
     inkscape:label="Calque 2">
    <g
       style="font-style:normal;font-variant:normal;font-weight:bold;font-stretch:normal;font-size:44.47535324px;line-height:125%;font-family:'HP Simplified';-inkscape-font-specification:'HP Simplified Bold';letter-spacing:0px;word-spacing:0px;fill:#000000;fill-opacity:1;stroke:none;stroke-width:1px;stroke-linecap:butt;stroke-linejoin:miter;stroke-opacity:1"
       id="text4167">
      <path
         d="m 477.95278,525.16194 -10.31828,0 0,6.09313 7.38291,0 c 1.09705,0 1.64558,0.51888 1.64558,1.55663 l 0,4.58097 -9.02849,0 0,12.45309 -6.1376,0 c -1.09706,0 -1.64559,-0.51888 -1.64559,-1.55663 l 0,-27.65362 c 0.0169,-0.82865 0.39027,-1.5742 1.19356,-1.58265 l 15.26232,-0.0285 c 1.09706,-0.002 1.64559,0.51888 1.64559,1.55664 z"
         id="path4172"
         inkscape:connector-curvature="0"
         sodipodi:nodetypes="cccsscccssccssc" />
      <path
         d="m 491.83117,524.45034 q -0.57818,0 -1.20083,0.0445 -0.57818,0 -0.93398,0.0445 l 0,19.39125 1.77901,0 q 1.46769,0 2.40167,-0.26685 0.97846,-0.31133 1.55664,-1.33426 0.57818,-1.02293 0.80055,-2.97985 0.26686,-1.95691 0.26686,-5.29257 0,-3.20222 -0.22238,-5.07019 -0.22238,-1.91244 -0.75608,-2.89089 -0.53371,-1.02294 -1.42321,-1.33427 -0.88951,-0.31132 -2.26825,-0.31132 z m -8.18346,25.39542 q -1.64559,0 -1.64559,-1.55663 l 0,-28.73108 q 2.57957,-0.48923 4.93676,-0.71161 2.40167,-0.26685 4.75887,-0.26685 3.0688,0 5.42599,0.62266 2.40167,0.57818 4.00278,2.31271 1.60112,1.73454 2.40167,4.80334 0.84503,3.0688 0.84503,8.00557 0,4.89228 -0.80055,7.91661 -0.80056,3.02432 -2.40167,4.71439 -1.60111,1.69006 -3.95831,2.31271 -2.35719,0.57818 -5.42599,0.57818 l -8.13899,0 z"
         style=""
         id="path4174" />
      <path
         d="m 520.2676,518.44616 q 1.51217,0 2.97985,0.26686 1.51216,0.26685 2.40167,0.7116 0.80056,0.40028 1.06741,0.93398 0.26685,0.53371 0.26685,1.42322 l 0,3.29117 q -1.33426,-0.0889 -2.66852,-0.13342 -1.28978,-0.0889 -2.84642,-0.0889 -1.51216,0 -2.49062,0.44475 -0.93398,0.40028 -1.51216,1.46769 -0.53371,1.02293 -0.75609,2.84642 -0.1779,1.82349 -0.1779,4.62544 0,2.89089 0.22238,4.75886 0.22238,1.86796 0.75608,2.97985 0.53371,1.11188 1.37874,1.55663 0.8895,0.44476 2.13481,0.44476 1.46769,0 2.66853,-0.0889 1.24531,-0.089 2.00139,-0.089 1.60111,0 1.60111,1.60111 l 0,3.64698 q -1.51216,0.62265 -3.33565,0.97846 -1.77902,0.40027 -4.49201,0.40027 -2.49062,0 -4.49201,-0.7116 -2.00139,-0.75608 -3.42461,-2.57957 -1.42321,-1.82349 -2.17929,-4.89229 -0.75608,-3.0688 -0.75608,-7.78319 0,-4.53648 0.62266,-7.60528 0.66713,-3.0688 2.04586,-4.93677 1.42321,-1.86796 3.64698,-2.66852 2.22377,-0.80056 5.33704,-0.80056 z"
         style=""
         id="path4176" />
      <path
         d="m 533.16129,549.84576 q -1.64559,0 -1.64559,-1.55663 l 0,-29.26479 6.1376,0 q 1.64559,0 1.64559,1.55664 l 0,22.90481 8.27241,0 q 1.64559,0 1.64559,1.55664 l 0,4.80333 -16.0556,0 z"
         style=""
         id="path4178" />
    </g>
  </g>
</svg>
